{
  "scheme": "dirtysea",
  "author": "Kahlil (Kal) Hodgson",
  "base00": "e0e0e0",
  "base01": "d0d0d0",
  "base02": "c0c0c0",
  "base03": "707070",
  "base04": "202020",
  "base05": "000000",
  "base06": "f8f8f8",
  "base07": "c4d9c4",
  "base08": "000090",
  "base09": "006565",
  "base0A": "006565",
  "base0B": "730073",
  "base0C": "755B00",
  "base0D": "007300",
  "base0E": "840000",
  "base0F": "755B00"
}
