{
  "scheme": "PaperColor Dark",
  "author": "Jon Leopard (http://github.com/jonleopard) based on PaperColor Theme (https://github.com/NLKNguyen/papercolor-theme)",
  "base00": "1c1c1c",
  "base01": "af005f",
  "base02": "5faf00",
  "base03": "d7af5f",
  "base04": "5fafd7",
  "base05": "808080",
  "base06": "d7875f",
  "base07": "d0d0d0",
  "base08": "585858",
  "base09": "5faf5f",
  "base0A": "afd700",
  "base0B": "af87d7",
  "base0C": "ffaf00",
  "base0D": "ff5faf",
  "base0E": "00afaf",
  "base0F": "5f8787"
}
