{
  "scheme": "Solar Flare Light",
  "author": "Chuck Harmston (https://chuck.harmston.ch)",
  "base00": "F5F7FA",
  "base01": "E8E9ED",
  "base02": "A6AFB8",
  "base03": "85939E",
  "base04": "667581",
  "base05": "586875",
  "base06": "222E38",
  "base07": "18262F",
  "base08": "EF5253",
  "base09": "E66B2B",
  "base0A": "E4B51C",
  "base0B": "7CC844",
  "base0C": "52CBB0",
  "base0D": "33B5E1",
  "base0E": "A363D5",
  "base0F": "D73C9A"
}
