{
  "scheme": "summercamp",
  "author": "zoe firi (zoefiri.github.io)",
  "base00": "1c1810",
  "base01": "2a261c",
  "base02": "3a3527",
  "base03": "504b38",
  "base04": "5f5b45",
  "base05": "736e55",
  "base06": "bab696",
  "base07": "f8f5de",
  "base08": "e35142",
  "base09": "fba11b",
  "base0A": "f2ff27",
  "base0B": "5ceb5a",
  "base0C": "5aebbc",
  "base0D": "489bf0",
  "base0E": "FF8080",
  "base0F": "F69BE7"
}
